podstawy_techniki_cyfrowej/projekty/zad6/simulation/qsim/zad6.msim.vcd
$comment
	File created using the following command:
		vcd file zad6.msim.vcd -direction
$end
$date
	Sun Nov 26 18:06:02 2017
$end
$version
	ModelSim Version 10.1d
$end
$timescale
	1ps
$end
$scope module zad6_vlg_vec_tst $end
$var reg 1 ! clock_27 $end
$var reg 1 " key [1:1] $end
$var reg 4 # sw [0:3] $end
$var wire 1 $ hex0 [0] $end
$var wire 1 % hex0 [1] $end
$var wire 1 & hex0 [2] $end
$var wire 1 ' hex0 [3] $end
$var wire 1 ( hex0 [4] $end
$var wire 1 ) hex0 [5] $end
$var wire 1 * hex0 [6] $end
$var wire 1 + hex1 [0] $end
$var wire 1 , hex1 [1] $end
$var wire 1 - hex1 [2] $end
$var wire 1 . hex1 [3] $end
$var wire 1 / hex1 [4] $end
$var wire 1 0 hex1 [5] $end
$var wire 1 1 hex1 [6] $end
$var wire 1 2 hex2 [0] $end
$var wire 1 3 hex2 [1] $end
$var wire 1 4 hex2 [2] $end
$var wire 1 5 hex2 [3] $end
$var wire 1 6 hex2 [4] $end
$var wire 1 7 hex2 [5] $end
$var wire 1 8 hex2 [6] $end
$var wire 1 9 hex3 [0] $end
$var wire 1 : hex3 [1] $end
$var wire 1 ; hex3 [2] $end
$var wire 1 < hex3 [3] $end
$var wire 1 = hex3 [4] $end
$var wire 1 > hex3 [5] $end
$var wire 1 ? hex3 [6] $end
$var wire 1 @ hex4 [0] $end
$var wire 1 A hex4 [1] $end
$var wire 1 B hex4 [2] $end
$var wire 1 C hex4 [3] $end
$var wire 1 D hex4 [4] $end
$var wire 1 E hex4 [5] $end
$var wire 1 F hex4 [6] $end
$var wire 1 G hex5 [0] $end
$var wire 1 H hex5 [1] $end
$var wire 1 I hex5 [2] $end
$var wire 1 J hex5 [3] $end
$var wire 1 K hex5 [4] $end
$var wire 1 L hex5 [5] $end
$var wire 1 M hex5 [6] $end
$var wire 1 N hex6 [0] $end
$var wire 1 O hex6 [1] $end
$var wire 1 P hex6 [2] $end
$var wire 1 Q hex6 [3] $end
$var wire 1 R hex6 [4] $end
$var wire 1 S hex6 [5] $end
$var wire 1 T hex6 [6] $end
$var wire 1 U hex7 [0] $end
$var wire 1 V hex7 [1] $end
$var wire 1 W hex7 [2] $end
$var wire 1 X hex7 [3] $end
$var wire 1 Y hex7 [4] $end
$var wire 1 Z hex7 [5] $end
$var wire 1 [ hex7 [6] $end
$var wire 1 \ ledg [0] $end
$var wire 1 ] ledg [1] $end
$var wire 1 ^ ledr [0] $end
$var wire 1 _ ledr [1] $end
$var wire 1 ` ledr [2] $end
$var wire 1 a ledr [3] $end
$var wire 1 b ledr [4] $end
$var wire 1 c ledr [5] $end
$var wire 1 d ledr [6] $end
$var wire 1 e ledr [7] $end
$var wire 1 f ledr [8] $end
$var wire 1 g ledr [9] $end
$var wire 1 h sampler $end
$scope module i1 $end
$var wire 1 i gnd $end
$var wire 1 j vcc $end
$var wire 1 k unknown $end
$var tri1 1 l devclrn $end
$var tri1 1 m devpor $end
$var tri1 1 n devoe $end
$var wire 1 o jk2|temp~1_combout $end
$var wire 1 p i0|wy~clkctrl_outclk $end
$var wire 1 q key[1]~clkctrl_outclk $end
$var wire 1 r jk3|temp~1_combout $end
$var wire 1 s jk1|temp~1_combout $end
$var wire 1 t jk0|temp~1_combout $end
$var wire 1 u jk2|temp~6_combout $end
$var wire 1 v jk2|temp~5_combout $end
$var wire 1 w jk2|temp~3_combout $end
$var wire 1 x jk2|temp~_emulated_regout $end
$var wire 1 y jk2|temp~2_combout $end
$var wire 1 z muxj2|Mux0~0_combout $end
$var wire 1 { jk0|temp~3_combout $end
$var wire 1 | jk0|temp~_emulated_regout $end
$var wire 1 } jk0|temp~2_combout $end
$var wire 1 ~ jk1|temp~5_combout $end
$var wire 1 !! jk1|temp~3_combout $end
$var wire 1 "! jk1|temp~_emulated_regout $end
$var wire 1 #! jk1|temp~2_combout $end
$var wire 1 $! muxj3|Mux0~0_combout $end
$var wire 1 %! jk3|temp~3_combout $end
$var wire 1 &! jk3|temp~_emulated_regout $end
$var wire 1 '! jk3|temp~2_combout $end
$var wire 1 (! muxDigitJK1g|Mux0~0_combout $end
$var wire 1 )! muxDigitJK1f|Mux0~0_combout $end
$var wire 1 *! muxDigitJK1e|Mux0~0_combout $end
$var wire 1 +! muxDigitJK1d|Mux0~0_combout $end
$var wire 1 ,! muxDigitJK1c|Mux0~0_combout $end
$var wire 1 -! muxDigitJK1b|Mux0~0_combout $end
$var wire 1 .! muxDigitJK1a|Mux0~0_combout $end
$var wire 1 /! muxDigitJK2c|Mux0~0_combout $end
$var wire 1 0! muxd3|Mux0~0_combout $end
$var wire 1 1! d3|wy~regout $end
$var wire 1 2! muxd2|Mux0~0_combout $end
$var wire 1 3! d2|wy~regout $end
$var wire 1 4! muxd0|Mux0~0_combout $end
$var wire 1 5! d0|wy~regout $end
$var wire 1 6! muxd1|Mux0~0_combout $end
$var wire 1 7! d1|wy~regout $end
$var wire 1 8! muxDigitD1g|Mux0~0_combout $end
$var wire 1 9! muxDigitD1f|Mux0~0_combout $end
$var wire 1 :! muxDigitD1e|Mux0~0_combout $end
$var wire 1 ;! muxDigitD1d|Mux0~0_combout $end
$var wire 1 <! muxDigitD1c|Mux0~0_combout $end
$var wire 1 =! muxDigitD1b|Mux0~0_combout $end
$var wire 1 >! muxDigitD1a|Mux0~0_combout $end
$var wire 1 ?! muxDigitD2c|Mux0~0_combout $end
$var wire 1 @! ledr[1]~reg0feeder_combout $end
$var wire 1 A! Equal0~0_combout $end
$var wire 1 B! ledr[1]~reg0_regout $end
$var wire 1 C! process_0~0_combout $end
$var wire 1 D! ledr[0]~reg0feeder_combout $end
$var wire 1 E! ledr[0]~reg0_regout $end
$var wire 1 F! wyk~0_combout $end
$var wire 1 G! wyk~regout $end
$var wire 1 H! clock_27~combout $end
$var wire 1 I! i0|wy~combout $end
$var wire 1 J! sw~combout [0] $end
$var wire 1 K! sw~combout [1] $end
$var wire 1 L! sw~combout [2] $end
$var wire 1 M! sw~combout [3] $end
$var wire 1 N! key~combout [1] $end
$upscope $end
$upscope $end
$enddefinitions $end
#0
$dumpvars
0!
b1 "
b1100 #
x*
x)
x(
x'
x&
x%
x$
11
10
1/
1.
x-
x,
1+
x8
x7
x6
x5
x4
x3
x2
1?
1>
1=
1<
x;
x:
19
1F
1E
1D
1C
1B
1A
1@
1M
1L
1K
1J
1I
1H
1G
1T
1S
1R
1Q
1P
1O
1N
1[
1Z
1Y
1X
1W
1V
1U
x]
x\
xg
xf
xe
xd
xc
xb
xa
x`
x_
x^
xh
0i
1j
xk
1l
1m
1n
xo
xp
xq
xr
xs
xt
xu
xv
xw
xx
xy
xz
x{
x|
x}
x~
x!!
x"!
x#!
x$!
x%!
x&!
x'!
x(!
x)!
x*!
x+!
x,!
x-!
x.!
x/!
x0!
x1!
x2!
x3!
x4!
x5!
x6!
x7!
x8!
x9!
x:!
x;!
x<!
x=!
x>!
x?!
1@!
xA!
xB!
xC!
xD!
0E!
xF!
xG!
0H!
xI!
0M!
0L!
1K!
1J!
1N!
$end
#118
1q
#218
0B!
0x
0|
0"!
0&!
01!
03!
05!
07!
0G!
#679
0I!
#702
16!
#981
14!
#996
00!
#998
02!
#1054
0=!
#1159
1>!
18!
#1161
0?!
#1165
1;!
#1245
1<!
#1251
19!
#1255
1:!
#2457
0p
#3440
0^
#3664
1g
#3666
1d
#3672
0]
#3802
1_
#3839
0f
#3866
1e
#4431
03
#4536
18
#4616
04
#4620
16
#4723
12
#4774
15
#4816
17
#4965
0C!
#4966
0\
#5013
0;
#5041
0:
#5546
1F!
0D!
#10000
1!
0h
#10860
1H!
#20000
0!
1h
#20860
0H!
#30000
1!
0h
#30860
1H!
#40000
b0 "
0!
1h
#40860
0H!
#40999
0N!
#41117
0q
#42616
0o
#42627
1t
#42628
1s
#42629
0r
#42778
1}
#42922
1#!
#42924
0y
#42946
1B!
#43039
0'!
#43185
1G!
#43363
0A!
#43484
1u
0~
#43486
1$!
#43497
1z
#43792
1{
#43832
1v
#43875
0!!
#43903
1)!
#44007
1*!
#44008
1,!
#44023
1/!
#44027
0-!
#44033
1w
#44295
0(!
#44302
0.!
#44305
0+!
#44401
1%!
#46217
1`
#46340
0b
#46346
1a
#46474
0c
#46530
0_
#46639
1]
#47114
1(
#47129
0&
#47130
0%
#47303
1)
#47404
0$
#47416
0*
#47426
1-
#47553
1,
#47663
0'
#50000
1!
0h
#50860
1H!
#52122
1I!
#53900
1p
#56409
1\
#60000
b1 "
0!
1h
#60860
0H!
#60999
1N!
#61117
1q
#62122
0I!
#63900
0p
#66409
0\
#70000
1!
0h
#70860
1H!
#72122
1I!
#73900
1p
#75711
1x
1|
1&!
#75729
15!
17!
#76052
06!
04!
#76169
1y
#76185
1'!
#76317
0}
#76409
1\
#76499
10!
#76506
14!
#76630
0v
1~
#76677
0;!
#76678
08!
#76683
0>!
#76708
09!
1?!
#76742
0z
#76747
0$!
#76766
0:!
#76938
0{
#77021
1!!
#77051
0w
#77169
0/!
#77473
0)!
#77542
1+!
#77548
1.!
#79177
0d
#79377
0e
#79585
1b
#79620
1c
#79756
0`
#80000
0!
1h
#80055
08
#80131
06
#80247
02
#80273
07
#80286
05
#80560
1;
#80572
0-
#80588
1:
#80650
1$
#80699
0,
#80860
0H!
#80873
0)
#80900
1'
#82122
0I!
#83900
0p
#86409
0\
#90000
1!
0h
#90860
1H!
#92122
1I!
#93900
1p
#95711
0x
0|
1"!
#95729
11!
07!
#96052
16!
00!
#96166
0#!
#96169
0y
#96213
06!
#96317
1}
#96409
1\
#96484
12!
#96669
19!
#96676
0<!
#96886
0u
#96971
0%!
#97144
0+!
#97198
1{
#97269
0.!
#97274
1/!
#99175
0g
#99377
1e
#99585
0b
#99590
0a
#99756
1`
#100000
0!
1h
#100047
14
#100234
17
#100371
0$
#100502
0'
#100677
1-
#100804
1,
#100860
0H!
#102122
0I!
#103900
0p
#106409
0\
#110000
1!
0h
#110860
1H!
#112122
1I!
#113900
1p
#115711
1|
0&!
#115729
01!
13!
#116052
02!
#116185
0'!
#116213
16!
#116217
10!
#116317
0}
#116409
1\
#116563
09!
#116564
1<!
#116630
0~
#116670
1>!
#116671
1:!
#116672
0?!
#116676
1;!
#117021
0!!
#117441
1(!
#117546
0*!
#119175
1g
#119350
1f
#119620
0c
#119756
0`
#119935
04
#120000
0!
1h
#120036
16
#120128
07
#120234
12
#120285
15
#120524
0;
#120552
0:
#120562
1*
#120653
0(
#120860
0H!
#122122
0I!
#123900
0p
#126409
0\
#130000
1!
0h
#130860
1H!
#132122
1I!
#133900
1p
#135711
0"!
#135729
11!
03!
17!
#136052
00!
#136166
1#!
#136409
1\
#136484
12!
#136561
1?!
#136562
0>!
#136566
0:!
#136612
1z
#136670
18!
#136677
0;!
#136882
1$!
#136883
1~
#136886
1u
#137076
1v
#137144
0,!
#137147
1)!
0(!
#137274
1!!
#137424
1%!
#137435
1w
#139175
0g
#139350
0f
#139377
0e
#139590
1a
#139931
06
#140000
0!
1h
#140047
18
#140126
02
#140265
1&
#140268
0*
#140286
05
#140413
1;
#140441
1:
#140547
1)
#140860
0H!
#142122
0I!
#143900
0p
#146409
0\
#150000
1!
0h
#150860
1H!
#152122
1I!
#153900
1p
#155711
1x
1"!
1&!
#155729
01!
13!
#156052
02!
10!
#156166
0#!
#156169
1y
#156185
1'!
#156217
00!
#156409
1\
#156484
12!
#156492
04!
#156564
08!
#156612
0z
#156630
0v
#156632
0$!
#156669
19!
#156672
0?!
#156676
0<!
#156883
0~
#156886
0u
#156938
0{
#157051
0w
#157169
0/!
#157274
0!!
#159175
1g
#159350
1f
#159585
1b
#159590
0a
#159620
1c
#159941
08
#160000
0!
1h
#160047
14
#160234
17
#160524
0;
#160552
0:
#160572
0-
#160699
0,
#160860
0H!
#162122
0I!
#163900
0p
#166409
0\
#170000
1!
0h
#170860
1H!
#172122
1I!
#173900
1p
#175711
0x
0|
0"!
#175729
05!
#176166
1#!
#176169
0y
#176225
02!
#176317
1}
#176409
1\
#176499
10!
#176742
1z
#176755
06!
#176756
1<!
#176766
1:!
#176883
1~
#176971
0%!
#177144
1,!
#177147
1(!
#177274
1!!
#177542
1+!
#177546
1*!
#177548
1.!
#179177
1d
#179585
0b
#179590
1a
#179756
1`
#180000
0!
1h
#180127
04
#180131
16
#180265
0&
#180268
1*
#180650
1$
#180653
1(
#180860
0H!
#180900
1'
#182122
0I!
#183900
0p
#186409
0\
#190000
1!
0h
#190860
1H!
#192122
1I!
#193900
1p
#195711
1"!
0&!
#195729
11!
03!
07!
#196052
16!
12!
00!
#196166
0#!
#196185
0'!
#196213
06!
#196409
1\
#196492
14!
#196509
02!
#196612
0z
#196630
1v
0~
#196632
1$!
#196672
1?!
#196897
1A!
#196938
1{
#197021
0!!
#197076
0v
#197174
1%!
#197416
1/!
#197906
0B!
#198025
0G!
#198486
0I!
#199175
0g
#199350
0f
#199377
1e
#199590
0a
#199620
0c
#200000
0!
1h
#200264
0p
#200524
1;
#200552
1:
#200819
1-
#200860
0H!
#200946
1,
#201479
0]
#201490
1_
#202773
0\
#210000
1!
0h
#210860
1H!
#220000
0!
1h
#220860
0H!
#230000
1!
0h
#230860
1H!
#240000
0!
1h
#240860
0H!
#250000
1!
0h
#250860
1H!
#260000
0!
1h
#260860
0H!
#270000
1!
0h
#270860
1H!
#280000
0!
1h
#280860
0H!
#290000
1!
0h
#290860
1H!
#300000
0!
1h
#300860
0H!
#310000
1!
0h
#310860
1H!
#320000
0!
1h
#320860
0H!
#330000
1!
0h
#330860
1H!
#340000
0!
1h
#340860
0H!
#350000
1!
0h
#350860
1H!
#360000
0!
1h
#360860
0H!
#370000
1!
0h
#370860
1H!
#380000
0!
1h
#380860
0H!
#390000
1!
0h
#390860
1H!
#400000
0!
1h
#400860
0H!
#410000
1!
0h
#410860
1H!
#420000
0!
1h
#420860
0H!
#430000
1!
0h
#430860
1H!
#440000
0!
1h
#440860
0H!
#450000
1!
0h
#450860
1H!
#460000
0!
1h
#460860
0H!
#470000
1!
0h
#470860
1H!
#480000
0!
1h
#480860
0H!
#490000
1!
0h
#490860
1H!
#500000
0!
1h
#500860
0H!
#510000
1!
0h
#510860
1H!
#520000
0!
1h
#520860
0H!
#530000
1!
0h
#530860
1H!
#540000
0!
1h
#540860
0H!
#550000
1!
0h
#550860
1H!
#560000
0!
1h
#560860
0H!
#570000
1!
0h
#570860
1H!
#580000
0!
1h
#580860
0H!
#590000
1!
0h
#590860
1H!
#600000
0!
1h
#600860
0H!
#610000
1!
0h
#610860
1H!
#620000
0!
1h
#620860
0H!
#630000
1!
0h
#630860
1H!
#640000
0!
1h
#640860
0H!
#650000
1!
0h
#650860
1H!
#660000
b0 "
0!
1h
#660860
0H!
#660999
0N!
#661117
0q
#662914
01!
#662915
0"!
#662922
1#!
#663363
0A!
#663368
1z
#663398
16!
#663642
1u
#663832
1v
#663855
1>!
18!
#663857
0?!
#663861
1;!
#663900
0+!
#663903
0(!
#663905
0.!
#664191
1w
#666346
1a
#666360
1g
#667007
0$
#667024
0*
#667232
18
#667258
0'
#667419
12
#667470
15
#667709
0;
#667737
0:
#670000
1!
0h
#670860
1H!
#680000
b1 "
0!
1h
#680860
0H!
#680999
1N!
#681117
1q
#690000
1!
0h
#690860
1H!
#700000
0!
1h
#700860
0H!
#710000
1!
0h
#710860
1H!
#720000
0!
1h
#720860
0H!
#730000
1!
0h
#730860
1H!
#740000
0!
1h
#740860
0H!
#750000
1!
0h
#750860
1H!
#760000
0!
1h
#760860
0H!
#770000
1!
0h
#770860
1H!
#780000
0!
1h
#780860
0H!
#790000
1!
0h
#790860
1H!
#800000
0!
1h
#800860
0H!
#810000
1!
0h
#810860
1H!
#820000
0!
1h
#820860
0H!
#830000
1!
0h
#830860
1H!
#840000
0!
1h
#840860
0H!
#850000
1!
0h
#850860
1H!
#860000
0!
1h
#860860
0H!
#870000
1!
0h
#870860
1H!
#880000
0!
1h
#880860
0H!
#890000
1!
0h
#890860
1H!
#900000
0!
1h
#900860
0H!
#910000
1!
0h
#910860
1H!
#920000
0!
1h
#920860
0H!
#930000
1!
0h
#930860
1H!
#940000
0!
1h
#940860
0H!
#950000
1!
0h
#950860
1H!
#960000
0!
1h
#960860
0H!
#970000
1!
0h
#970860
1H!
#980000
0!
1h
#980860
0H!
#990000
1!
0h
