podstawy_techniki_cyfrowej/projekty/zad4/simulation/qsim/transkoder.msim.vcd
$comment
	File created using the following command:
		vcd file transkoder.msim.vcd -direction
$end
$date
	Sat Nov 11 20:32:45 2017
$end
$version
	ModelSim Version 10.1d
$end
$timescale
	1ps
$end
$scope module transkoder_vlg_vec_tst $end
$var reg 4 ! sw [0:3] $end
$var wire 1 " ledr [0] $end
$var wire 1 # ledr [1] $end
$var wire 1 $ ledr [2] $end
$var wire 1 % ledr [3] $end
$var wire 1 & ledr [4] $end
$var wire 1 ' sampler $end
$scope module i1 $end
$var wire 1 ( gnd $end
$var wire 1 ) vcc $end
$var wire 1 * unknown $end
$var tri1 1 + devclrn $end
$var tri1 1 , devpor $end
$var tri1 1 - devoe $end
$var wire 1 . Mux4~0_combout $end
$var wire 1 / Mux3~0_combout $end
$var wire 1 0 Mux2~0_combout $end
$var wire 1 1 Mux1~0_combout $end
$var wire 1 2 Mux0~0_combout $end
$var wire 1 3 sw~combout [0] $end
$var wire 1 4 sw~combout [1] $end
$var wire 1 5 sw~combout [2] $end
$var wire 1 6 sw~combout [3] $end
$upscope $end
$upscope $end
$enddefinitions $end
#0
$dumpvars
b0 !
x&
x%
x$
x#
x"
x'
0(
1)
x*
1+
1,
1-
x.
x/
x0
x1
x2
06
05
04
03
$end
#2176
0.
#5302
00
#5304
02
#5448
0&
#5471
01
#5472
0/
#8619
0"
#8763
0#
#8888
0$
#9346
0%
#40000
b1000 !
0'
#40979
13
#42887
12
#42888
11
#42890
1/
#46180
1#
#46202
1"
#46764
1%
#80000
b1100 !
b100 !
1'
#80842
14
#80979
03
#82887
02
#82888
01
#82890
0/
#86143
1/
#86144
11
10
#86180
0#
#86202
0"
#86764
0%
#89436
1#
#89730
1$
#90017
1%
#120000
b1100 !
0'
#120979
13
#122887
12
#122890
00
0/
#126202
1"
#126476
0$
#126764
0%
#160000
b1110 !
b1010 !
b10 !
1'
#160842
04
#160979
03
15
#162887
02
#163155
1.
#163160
01
#166143
1/
#166144
0.
#166146
12
#166202
0"
#166427
1&
#166452
0#
#169416
0&
#169461
1"
#170017
1%
#200000
b1010 !
0'
#200979
13
#202888
11
#202890
10
#206180
1#
#206476
1$
#240000
b1110 !
b110 !
1'
#240842
14
#240979
03
#242888
01
#242890
00
#246143
0/
#246144
1.
#246146
02
#246180
0#
#246476
0$
#249416
1&
#249461
0"
#250017
0%
#280000
b1110 !
0'
#280979
13
#320000
b1111 !
b1101 !
b1001 !
b1 !
1'
#320842
04
#320872
16
#320979
03
05
#323155
0.
#323160
1/
11
#323161
10
#326144
00
#326427
0&
#326452
1#
#326747
1$
#327034
1%
#329730
0$
#360000
b1001 !
0'
#360979
13
#362888
01
#362890
10
#366180
0#
#366476
1$
#400000
b1101 !
b101 !
1'
#400842
14
#400979
03
#402888
11
#402890
00
#406143
0/
#406144
01
10
#406146
12
#406180
1#
#406476
0$
#409436
0#
#409461
1"
#409730
1$
#410017
0%
#440000
b1101 !
0'
#440979
13
#442887
02
#442890
00
1/
#446202
0"
#446476
0$
#446764
1%
#480000
b1111 !
b1011 !
b11 !
1'
#480842
04
#480979
03
15
#482887
12
#482890
10
#486143
0/
#486144
11
00
#486146
02
#486202
1"
#486476
1$
#489436
1#
#489461
0"
#489730
0$
#490017
0%
#520000
b1011 !
0'
#520979
13
#522889
1.
#526161
1&
#560000
b1111 !
b111 !
1'
#560842
14
#560979
03
#562889
0.
#566143
1/
#566144
01
10
#566146
12
#566161
0&
#569436
0#
#569461
1"
#569730
1$
#570017
1%
#600000
b1111 !
0'
#600979
13
#602889
1.
#606161
1&
#640000
b1110 !
b1100 !
b1000 !
b0 !
1'
#640842
04
#640872
06
#640979
03
05
#642889
0.
#643160
0/
#646144
00
#646146
02
#646161
0&
#647034
0%
#649461
0"
#649730
0$
#680000
b1000 !
0'
#680979
13
#682887
12
#682888
11
#682890
1/
#686180
1#
#686202
1"
#686764
1%
#720000
b1100 !
b100 !
1'
#720842
14
#720979
03
#722887
02
#722888
01
#722890
0/
#726143
1/
#726144
11
10
#726180
0#
#726202
0"
#726764
0%
#729436
1#
#729730
1$
#730017
1%
#760000
b1100 !
0'
#760979
13
#762887
12
#762890
00
0/
#766202
1"
#766476
0$
#766764
0%
#800000
b1110 !
b1010 !
b10 !
1'
#800842
04
#800979
03
15
#802887
02
#803155
1.
#803160
01
#806143
1/
#806144
0.
#806146
12
#806202
0"
#806427
1&
#806452
0#
#809416
0&
#809461
1"
#810017
1%
#840000
b1010 !
0'
#840979
13
#842888
11
#842890
10
#846180
1#
#846476
1$
#880000
b1110 !
b110 !
1'
#880842
14
#880979
03
#882888
01
#882890
00
#886143
0/
#886144
1.
#886146
02
#886180
0#
#886476
0$
#889416
1&
#889461
0"
#890017
0%
#920000
b1110 !
0'
#920979
13
#960000
b1111 !
b1101 !
b1001 !
b1 !
1'
#960842
04
#960872
16
#960979
03
05
#963155
0.
#963160
1/
11
#963161
10
#966144
00
#966427
0&
#966452
1#
#966747
1$
#967034
1%
#969730
0$
