podstawy_techniki_cyfrowej/projekty/zad2/simulation/qsim/skracanie_licznikow.msim.vcd
$comment
	File created using the following command:
		vcd file skracanie_licznikow.msim.vcd -direction
$end
$date
	Mon Oct 30 09:23:29 2017
$end
$version
	ModelSim Version 10.1d
$end
$timescale
	1ps
$end
$scope module skracanie_licznikow_vlg_vec_tst $end
$var reg 2 ! KEY [3:2] $end
$var wire 1 " LEDR [4] $end
$var wire 1 # LEDR [3] $end
$var wire 1 $ LEDR [2] $end
$var wire 1 % LEDR [1] $end
$var wire 1 & LEDR [0] $end
$var wire 1 ' sampler $end
$scope module i1 $end
$var wire 1 ( gnd $end
$var wire 1 ) vcc $end
$var wire 1 * unknown $end
$var tri1 1 + devclrn $end
$var tri1 1 , devpor $end
$var tri1 1 - devoe $end
$var wire 1 . inst7~combout $end
$var wire 1 / inst|15~0_combout $end
$var wire 1 0 inst|13~0_combout $end
$var wire 1 1 inst|13~regout $end
$var wire 1 2 inst|16~0_combout $end
$var wire 1 3 inst|16~regout $end
$var wire 1 4 inst6~0_combout $end
$var wire 1 5 inst2~combout $end
$var wire 1 6 inst|15~regout $end
$var wire 1 7 inst|14~0_combout $end
$var wire 1 8 inst|14~regout $end
$var wire 1 9 inst1~combout $end
$var wire 1 : inst4|16~0_combout $end
$var wire 1 ; inst4|16~regout $end
$var wire 1 < KEY~combout [3] $end
$var wire 1 = KEY~combout [2] $end
$upscope $end
$upscope $end
$enddefinitions $end
#0
$dumpvars
b1 !
x&
x%
x$
x#
x"
x'
0(
1)
x*
1+
1,
1-
x.
x/
x0
x1
x2
x3
x4
x5
x6
x7
x8
x9
x:
x;
1=
0<
$end
#218
01
03
06
08
0;
#541
1:
1/
12
#681
00
#691
07
04
#959
19
#962
1.
#3667
0$
#3674
0%
#3891
0&
#3923
0#
#3925
0"
#7825
05
#10000
b11 !
0'
#10852
1<
#15270
13
#15593
02
#16014
0.
#18943
1&
#20000
b1 !
1'
#20852
0<
#30000
b11 !
0'
#30852
1<
#35270
03
#35593
12
#36014
1.
#37037
16
#37360
0/
#37510
17
#38943
0&
#40000
b1 !
1'
#40493
1%
#40852
0<
#50000
b11 !
0'
#50852
1<
#55270
13
#55593
02
#56014
0.
#58943
1&
#60000
b1 !
1'
#60852
0<
#70000
b11 !
0'
#70852
1<
#75270
03
#75593
12
#76014
1.
#77037
06
18
#77360
07
1/
#77500
10
#77510
17
#77952
00
#78943
0&
#80000
b1 !
1'
#80486
1$
#80493
0%
#80852
0<
#90000
b11 !
0'
#90852
1<
#95270
13
#95593
02
#96014
0.
#98943
1&
#100000
b1 !
1'
#100852
0<
#110000
b11 !
0'
#110852
1<
#115270
03
#115593
12
#116014
1.
#117037
16
#117360
0/
#117510
07
#117952
10
#118943
0&
#120000
b1 !
1'
#120493
1%
#120852
0<
#130000
b11 !
0'
#130852
1<
#135270
13
#135593
02
#136014
0.
#138943
1&
#140000
b1 !
1'
#140852
0<
#150000
b11 !
0'
#150852
1<
#155270
03
#155593
12
#156014
1.
#157037
11
06
08
#157360
17
1/
#157510
07
#158943
0&
#160000
b1 !
1'
#160486
0$
#160493
0%
#160742
1#
#160852
0<
#170000
b11 !
0'
#170852
1<
#175270
13
#175593
02
#176014
0.
#178943
1&
#180000
b1 !
1'
#180852
0<
#190000
b11 !
0'
#190852
1<
#195270
03
#195593
12
#196014
1.
#197037
16
#197360
0/
#197510
17
#198943
0&
#200000
b1 !
1'
#200493
1%
#200852
0<
#210000
b11 !
0'
#210852
1<
#215270
13
#215593
02
#215876
14
#216014
0.
#218943
1&
#220000
b1 !
1'
#220852
0<
#230000
b11 !
0'
#230852
1<
#235270
03
#235593
12
#235876
04
#236014
1.
#237037
06
18
#237360
07
1/
#237500
00
#237510
17
#237952
10
#238943
0&
#240000
b1 !
1'
#240486
1$
#240493
0%
#240852
0<
#250000
b11 !
0'
#250852
1<
#255270
13
#255593
02
#256014
0.
#258943
1&
#260000
b1 !
1'
#260852
0<
#270000
b11 !
0'
#270852
1<
#275270
03
#275593
12
#276014
1.
#277037
16
#277360
0/
#277510
07
#277952
00
#278943
0&
#280000
b1 !
1'
#280493
1%
#280852
0<
#290000
b11 !
0'
#290852
1<
#295270
13
#295593
02
#295876
14
#295880
09
#296014
0.
#298943
1&
#300000
b1 !
1'
#300852
0<
#310000
b11 !
0'
#310852
1<
#315270
03
#315593
12
#315876
04
#315880
19
#316014
1.
#317037
01
06
08
#317075
1;
#317360
17
1/
#317398
0:
#317510
07
#318943
0&
#320000
b1 !
1'
#320486
0$
#320493
0%
#320742
0#
#320782
1"
#320852
0<
#330000
b11 !
0'
#330852
1<
#335270
13
#335593
02
#336014
0.
#338943
1&
#340000
b1 !
1'
#340852
0<
#350000
b11 !
0'
#350852
1<
#355270
03
#355593
12
#356014
1.
#357037
16
#357360
0/
#357510
17
#358943
0&
#360000
b1 !
1'
#360493
1%
#360852
0<
#370000
b11 !
0'
#370852
1<
#375270
13
#375593
02
#376014
0.
#378943
1&
#380000
b1 !
1'
#380852
0<
#390000
b11 !
0'
#390852
1<
#395270
03
#395593
12
#396014
1.
#397037
06
18
#397360
07
1/
#397500
10
#397510
17
#397952
00
#398943
0&
#400000
b1 !
1'
#400486
1$
#400493
0%
#400852
0<
#410000
b11 !
0'
#410852
1<
#415270
13
#415593
02
#416014
0.
#418943
1&
#420000
b1 !
1'
#420852
0<
#430000
b11 !
0'
#430852
1<
#435270
03
#435593
12
#436014
1.
#437037
16
#437360
0/
#437510
07
#437952
10
#438943
0&
#440000
b1 !
1'
#440493
1%
#440852
0<
#450000
b11 !
0'
#450852
1<
#455270
13
#455593
02
#456014
0.
#458943
1&
#460000
b1 !
1'
#460852
0<
#470000
b11 !
0'
#470852
1<
#475270
03
#475593
12
#476014
1.
#477037
11
06
08
#477360
17
1/
#477510
07
#478943
0&
#480000
b1 !
1'
#480486
0$
#480493
0%
#480742
1#
#480852
0<
#490000
b11 !
0'
#490852
1<
#495270
13
#495593
02
#496014
0.
#498943
1&
#500000
b1 !
1'
#500852
0<
#510000
b11 !
0'
#510852
1<
#515270
03
#515593
12
#516014
1.
#517037
16
#517360
0/
#517510
17
#518943
0&
#520000
b1 !
1'
#520493
1%
#520852
0<
#530000
b11 !
0'
#530852
1<
#535270
13
#535593
02
#535876
14
#536014
0.
#536271
1.
#536274
15
#537259
01
03
06
#537411
0;
#537582
1/
12
00
#537732
07
04
#537734
1:
#538144
05
#540000
b1 !
1'
#540715
0%
#540852
0<
#540964
0#
#541118
0"
#550000
b11 !
0'
#550852
1<
#555270
13
#555593
02
#556014
0.
#558943
1&
#560000
b1 !
1'
#560852
0<
#570000
b11 !
0'
#570852
1<
#575270
03
#575593
12
#576014
1.
#577037
16
#577360
0/
#577510
17
#578943
0&
#580000
b1 !
1'
#580493
1%
#580852
0<
#590000
b11 !
0'
#590852
1<
#595270
13
#595593
02
#596014
0.
#598943
1&
#600000
b1 !
1'
#600852
0<
#610000
b11 !
0'
#610852
1<
#615270
03
#615593
12
#616014
1.
#617037
06
18
#617360
07
1/
#617500
10
#617510
17
#617952
00
#618943
0&
#620000
b1 !
1'
#620486
1$
#620493
0%
#620852
0<
#630000
b11 !
0'
#630852
1<
#635270
13
#635593
02
#636014
0.
#638943
1&
#640000
b1 !
1'
#640852
0<
#650000
b11 !
0'
#650852
1<
#655270
03
#655593
12
#656014
1.
#657037
16
#657360
0/
#657510
07
#657952
10
#658943
0&
#660000
b1 !
1'
#660493
1%
#660852
0<
#670000
b11 !
0'
#670852
1<
#675270
13
#675593
02
#676014
0.
#678943
1&
#680000
b1 !
1'
#680852
0<
#690000
b11 !
0'
#690852
1<
#695270
03
#695593
12
#696014
1.
#697037
11
06
08
#697360
17
1/
#697510
07
#698943
0&
#700000
b1 !
1'
#700486
0$
#700493
0%
#700742
1#
#700852
0<
#710000
b11 !
0'
#710852
1<
#715270
13
#715593
02
#716014
0.
#718943
1&
#720000
b1 !
1'
#720852
0<
#730000
b11 !
0'
#730852
1<
#735270
03
#735593
12
#736014
1.
#737037
16
#737360
0/
#737510
17
#738943
0&
#740000
b1 !
1'
#740493
1%
#740852
0<
#750000
b11 !
0'
#750852
1<
#755270
13
#755593
02
#755876
14
#756014
0.
#758943
1&
#760000
b1 !
1'
#760852
0<
#770000
b11 !
0'
#770852
1<
#775270
03
#775593
12
#775876
04
#776014
1.
#777037
06
18
#777360
07
1/
#777500
00
#777510
17
#777952
10
#778943
0&
#780000
b1 !
1'
#780486
1$
#780493
0%
#780852
0<
#790000
b11 !
0'
#790852
1<
#795270
13
#795593
02
#796014
0.
#798943
1&
#800000
b1 !
1'
#800852
0<
#810000
b11 !
0'
#810852
1<
#815270
03
#815593
12
#816014
1.
#817037
16
#817360
0/
#817510
07
#817952
00
#818943
0&
#820000
b1 !
1'
#820493
1%
#820852
0<
#830000
b11 !
0'
#830852
1<
#835270
13
#835593
02
#835876
14
#835880
09
#836014
0.
#838943
1&
#840000
b1 !
1'
#840852
0<
#850000
b11 !
0'
#850852
1<
#855270
03
#855593
12
#855876
04
#855880
19
#856014
1.
#857037
01
06
08
#857075
1;
#857360
17
1/
#857398
0:
#857510
07
#858943
0&
#860000
b1 !
1'
#860486
0$
#860493
0%
#860742
0#
#860782
1"
#860852
0<
#870000
b11 !
0'
#870852
1<
#875270
13
#875593
02
#876014
0.
#878943
1&
#880000
b1 !
1'
#880852
0<
#890000
b11 !
0'
#890852
1<
#895270
03
#895593
12
#896014
1.
#897037
16
#897360
0/
#897510
17
#898943
0&
#900000
b1 !
1'
#900493
1%
#900852
0<
#910000
b11 !
0'
#910852
1<
#915270
13
#915593
02
#916014
0.
#918943
1&
#920000
b1 !
1'
#920852
0<
#930000
b11 !
0'
#930852
1<
#935270
03
#935593
12
#936014
1.
#937037
06
18
#937360
07
1/
#937500
10
#937510
17
#937952
00
#938943
0&
#940000
b1 !
1'
#940486
1$
#940493
0%
#940852
0<
#950000
b11 !
0'
#950852
1<
#955270
13
#955593
02
#956014
0.
#958943
1&
#960000
b1 !
1'
#960852
0<
#970000
b11 !
0'
#970852
1<
#975270
03
#975593
12
#976014
1.
#977037
16
#977360
0/
#977510
07
#977952
10
#978943
0&
#980000
b1 !
1'
#980493
1%
#980852
0<
#990000
b11 !
0'
#990852
1<
#995270
13
#995593
02
#996014
0.
#998943
1&
