podstawy_techniki_cyfrowej/projekty/zad_6/simulation/qsim/zad_6.msim.vcd
$comment
	File created using the following command:
		vcd file zad_6.msim.vcd -direction
$end
$date
	Mon Nov 20 01:29:33 2017
$end
$version
	ModelSim Version 10.1d
$end
$timescale
	1ps
$end
$scope module zad_6_vlg_vec_tst $end
$var reg 1 ! clock_28 $end
$var reg 1 " key [1:1] $end
$var reg 4 # sw [0:3] $end
$var wire 1 $ hex0 [0] $end
$var wire 1 % hex0 [1] $end
$var wire 1 & hex0 [2] $end
$var wire 1 ' hex0 [3] $end
$var wire 1 ( hex0 [4] $end
$var wire 1 ) hex0 [5] $end
$var wire 1 * hex0 [6] $end
$var wire 1 + hex1 [0] $end
$var wire 1 , hex1 [1] $end
$var wire 1 - hex1 [2] $end
$var wire 1 . hex1 [3] $end
$var wire 1 / hex1 [4] $end
$var wire 1 0 hex1 [5] $end
$var wire 1 1 hex1 [6] $end
$var wire 1 2 hex2 [0] $end
$var wire 1 3 hex2 [1] $end
$var wire 1 4 hex2 [2] $end
$var wire 1 5 hex2 [3] $end
$var wire 1 6 hex2 [4] $end
$var wire 1 7 hex2 [5] $end
$var wire 1 8 hex2 [6] $end
$var wire 1 9 hex3 [0] $end
$var wire 1 : hex3 [1] $end
$var wire 1 ; hex3 [2] $end
$var wire 1 < hex3 [3] $end
$var wire 1 = hex3 [4] $end
$var wire 1 > hex3 [5] $end
$var wire 1 ? hex3 [6] $end
$var wire 1 @ hex4 [0] $end
$var wire 1 A hex4 [1] $end
$var wire 1 B hex4 [2] $end
$var wire 1 C hex4 [3] $end
$var wire 1 D hex4 [4] $end
$var wire 1 E hex4 [5] $end
$var wire 1 F hex4 [6] $end
$var wire 1 G hex5 [0] $end
$var wire 1 H hex5 [1] $end
$var wire 1 I hex5 [2] $end
$var wire 1 J hex5 [3] $end
$var wire 1 K hex5 [4] $end
$var wire 1 L hex5 [5] $end
$var wire 1 M hex5 [6] $end
$var wire 1 N hex6 [0] $end
$var wire 1 O hex6 [1] $end
$var wire 1 P hex6 [2] $end
$var wire 1 Q hex6 [3] $end
$var wire 1 R hex6 [4] $end
$var wire 1 S hex6 [5] $end
$var wire 1 T hex6 [6] $end
$var wire 1 U hex7 [0] $end
$var wire 1 V hex7 [1] $end
$var wire 1 W hex7 [2] $end
$var wire 1 X hex7 [3] $end
$var wire 1 Y hex7 [4] $end
$var wire 1 Z hex7 [5] $end
$var wire 1 [ hex7 [6] $end
$var wire 1 \ ledg [0] $end
$var wire 1 ] ledr [0] $end
$var wire 1 ^ ledr [1] $end
$var wire 1 _ ledr [2] $end
$var wire 1 ` ledr [3] $end
$var wire 1 a ledr [4] $end
$var wire 1 b ledr [5] $end
$var wire 1 c ledr [6] $end
$var wire 1 d ledr [7] $end
$var wire 1 e ledr [8] $end
$var wire 1 f ledr [9] $end
$var wire 1 g sampler $end
$scope module i1 $end
$var wire 1 h gnd $end
$var wire 1 i vcc $end
$var wire 1 j unknown $end
$var tri1 1 k devclrn $end
$var tri1 1 l devpor $end
$var tri1 1 m devoe $end
$var wire 1 n i0|wy~clkctrl_outclk $end
$var wire 1 o i16|Mux0~0_combout $end
$var wire 1 p key[1]~clkctrl_outclk $end
$var wire 1 q i12|wy~regout $end
$var wire 1 r i15|Mux0~0_combout $end
$var wire 1 s i11|wy~regout $end
$var wire 1 t i14|Mux0~0_combout $end
$var wire 1 u i10|wy~regout $end
$var wire 1 v i13|Mux0~0_combout $end
$var wire 1 w i9|wy~regout $end
$var wire 1 x dig06|Mux0~0_combout $end
$var wire 1 y dig05|Mux0~0_combout $end
$var wire 1 z dig04|Mux0~0_combout $end
$var wire 1 { dig03|Mux0~0_combout $end
$var wire 1 | dig02|Mux0~0_combout $end
$var wire 1 } dig01|Mux0~0_combout $end
$var wire 1 ~ dig00|Mux0~0_combout $end
$var wire 1 !! dig12|Mux0~0_combout $end
$var wire 1 "! process_0~0_combout $end
$var wire 1 #! i4|temp~1_combout $end
$var wire 1 $! i2|temp~1_combout $end
$var wire 1 %! i3|temp~1_combout $end
$var wire 1 &! comb~0_combout $end
$var wire 1 '! i5|Mux0~0_combout $end
$var wire 1 (! i3|temp~3_combout $end
$var wire 1 )! i3|temp~_emulated_regout $end
$var wire 1 *! i3|temp~2_combout $end
$var wire 1 +! i2|temp~3_combout $end
$var wire 1 ,! i2|temp~_emulated_regout $end
$var wire 1 -! i2|temp~2_combout $end
$var wire 1 .! i1|temp~1_combout $end
$var wire 1 /! i1|temp~5_combout $end
$var wire 1 0! i1|temp~3_combout $end
$var wire 1 1! i1|temp~_emulated_regout $end
$var wire 1 2! i1|temp~2_combout $end
$var wire 1 3! i4|temp~5_combout $end
$var wire 1 4! i4|temp~3_combout $end
$var wire 1 5! i4|temp~_emulated_regout $end
$var wire 1 6! i4|temp~2_combout $end
$var wire 1 7! Equal0~0_combout $end
$var wire 1 8! ledg~0_combout $end
$var wire 1 9! wykonuj~0_combout $end
$var wire 1 :! wykonuj~regout $end
$var wire 1 ;! clock_28~combout $end
$var wire 1 <! i0|wy~combout $end
$var wire 1 =! ledr[0]~reg0_regout $end
$var wire 1 >! ledg[0]~reg0_regout $end
$var wire 1 ?! key~combout [1] $end
$var wire 1 @! sw~combout [0] $end
$var wire 1 A! sw~combout [1] $end
$var wire 1 B! sw~combout [2] $end
$var wire 1 C! sw~combout [3] $end
$upscope $end
$upscope $end
$enddefinitions $end
#0
$dumpvars
0!
b1 "
b1000 #
x*
x)
x(
x'
x&
x%
x$
11
10
1/
1.
x-
x,
1+
18
17
16
15
14
13
12
1?
1>
1=
1<
1;
1:
19
1F
1E
1D
1C
1B
1A
1@
1M
1L
1K
1J
1I
1H
1G
1T
1S
1R
1Q
1P
1O
1N
1[
1Z
1Y
1X
1W
1V
1U
x\
xf
xe
xd
xc
xb
xa
x`
x_
x^
x]
xg
0h
1i
xj
1k
1l
1m
xn
xo
xp
xq
xr
xs
xt
xu
xv
xw
xx
xy
xz
x{
x|
x}
x~
x!!
x"!
x#!
x$!
x%!
x&!
x'!
x(!
x)!
x*!
x+!
x,!
x-!
x.!
x/!
x0!
x1!
x2!
x3!
x4!
x5!
x6!
x7!
x8!
x9!
0:!
0;!
x<!
0=!
0>!
1?!
0C!
0B!
0A!
1@!
$end
#114
1p
#218
0q
0s
0u
0w
0)!
0,!
01!
05!
#696
0t
#697
0v
#731
0<!
#1127
0r
#1137
1y
#1141
0|
1x
#1211
1}
#1218
1{
#1219
1~
#1220
0z
#1228
1!!
#1309
0n
#3365
0e
#3451
0]
#3551
1c
#3651
0d
#3700
0b
#3757
0\
#4223
1&
#4313
0f
#4402
0*
#4412
1)
#4565
0%
#4606
0(
#4609
0'
#4610
1,
#4613
0$
#4620
1-
#5156
1o
#5378
0"!
#10000
1!
b0 "
0g
#10812
1;!
#10989
0?!
#11103
0p
#11511
0*!
#11781
12!
#11782
06!
#11802
0-!
#11943
07!
#12324
0&!
#12328
x:!
#12340
08!
#12410
1'!
03!
#12495
0/!
#12815
0$!
#12831
0%!
#12832
0#!
1.!
#12913
19!
#13059
x<!
#13403
1+!
#13637
xn
#13765
14!
#13768
10!
#13776
1(!
#14913
0`
#15207
0a
#15231
0_
#15520
1^
#16641
xf
#20000
0!
b1 "
1g
#20812
0;!
#20989
1?!
#21103
1p
#21911
0<!
#22489
0n
#25493
0f
#30000
1!
0g
#30812
1;!
#31911
x<!
#32489
xn
#35493
xf
#40000
0!
1g
#40812
0;!
#41911
0<!
#42489
0n
#45493
0f
#50000
1!
0g
#50812
1;!
#51911
x<!
#52489
xn
#55493
xf
#60000
0!
1g
#60812
0;!
#61911
0<!
#62489
0n
#65493
0f
#70000
1!
0g
#70812
1;!
#71911
x<!
#72489
xn
#75493
xf
#80000
0!
1g
#80812
0;!
#81911
0<!
#82489
0n
#85493
0f
#90000
1!
0g
#90812
1;!
#91911
x<!
#92489
xn
#95493
xf
#100000
0!
1g
#100812
0;!
#101911
0<!
#102489
0n
#105493
0f
#110000
1!
0g
#110812
1;!
#111911
x<!
#112489
xn
#115493
xf
#120000
0!
1g
#120812
0;!
#121911
0<!
#122489
0n
#125493
0f
#130000
1!
0g
#130812
1;!
#131911
x<!
#132489
xn
#135493
xf
#140000
0!
1g
#140812
0;!
#141911
0<!
#142489
0n
#145493
0f
#150000
1!
0g
#150812
1;!
#151911
x<!
#152489
xn
#155493
xf
#160000
0!
1g
#160812
0;!
#161911
0<!
#162489
0n
#165493
0f
#170000
1!
0g
#170812
1;!
#171911
x<!
#172489
xn
#175493
xf
#180000
0!
1g
#180812
0;!
#181911
0<!
#182489
0n
#185493
0f
#190000
1!
0g
#190812
1;!
#191911
x<!
#192489
xn
#195493
xf
#200000
0!
1g
#200812
0;!
#201911
0<!
#202489
0n
#205493
0f
#210000
1!
0g
#210812
1;!
#211911
x<!
#212489
xn
#215493
xf
#220000
0!
1g
#220812
0;!
#221911
0<!
#222489
0n
#225493
0f
#230000
1!
0g
#230812
1;!
#231911
x<!
#232489
xn
#235493
xf
#240000
0!
1g
#240812
0;!
#241911
0<!
#242489
0n
#245493
0f
#250000
1!
0g
#250812
1;!
#251911
x<!
#252489
xn
#255493
xf
#260000
0!
1g
#260812
0;!
#261911
0<!
#262489
0n
#265493
0f
#270000
1!
0g
#270812
1;!
#271911
x<!
#272489
xn
#275493
xf
#280000
0!
1g
#280812
0;!
#281911
0<!
#282489
0n
#285493
0f
#290000
1!
0g
#290812
1;!
#291911
x<!
#292489
xn
#295493
xf
#300000
0!
1g
#300812
0;!
#301911
0<!
#302489
0n
#305493
0f
#310000
1!
0g
#310812
1;!
#311911
x<!
#312489
xn
#315493
xf
#320000
0!
1g
#320812
0;!
#321911
0<!
#322489
0n
#325493
0f
#330000
1!
0g
#330812
1;!
#331911
x<!
#332489
xn
#335493
xf
#340000
0!
1g
#340812
0;!
#341911
0<!
#342489
0n
#345493
0f
#350000
1!
0g
#350812
1;!
#351911
x<!
#352489
xn
#355493
xf
#360000
0!
1g
#360812
0;!
#361911
0<!
#362489
0n
#365493
0f
#370000
1!
0g
#370812
1;!
#371911
x<!
#372489
xn
#375493
xf
#380000
0!
1g
#380812
0;!
#381911
0<!
#382489
0n
#385493
0f
#390000
1!
0g
#390812
1;!
#391911
x<!
#392489
xn
#395493
xf
#400000
0!
1g
#400812
0;!
#401911
0<!
#402489
0n
#405493
0f
#410000
1!
0g
#410812
1;!
#411911
x<!
#412489
xn
#415493
xf
#420000
0!
1g
#420812
0;!
#421911
0<!
#422489
0n
#425493
0f
#430000
1!
0g
#430812
1;!
#431911
x<!
#432489
xn
#435493
xf
#440000
0!
1g
#440812
0;!
#441911
0<!
#442489
0n
#445493
0f
#450000
1!
0g
#450812
1;!
#451911
x<!
#452489
xn
#455493
xf
#460000
0!
1g
#460812
0;!
#461911
0<!
#462489
0n
#465493
0f
#470000
1!
0g
#470812
1;!
#471911
x<!
#472489
xn
#475493
xf
#480000
0!
1g
#480812
0;!
#481911
0<!
#482489
0n
#485493
0f
#490000
1!
0g
#490812
1;!
#491911
x<!
#492489
xn
#495493
xf
#500000
0!
1g
#500812
0;!
#501911
0<!
#502489
0n
#505493
0f
#510000
1!
0g
#510812
1;!
#511911
x<!
#512489
xn
#515493
xf
#520000
0!
1g
#520812
0;!
#521911
0<!
#522489
0n
#525493
0f
#530000
1!
0g
#530812
1;!
#531911
x<!
#532489
xn
#535493
xf
#540000
0!
1g
#540812
0;!
#541911
0<!
#542489
0n
#545493
0f
#550000
1!
0g
#550812
1;!
#551911
x<!
#552489
xn
#555493
xf
#560000
0!
1g
#560812
0;!
#561911
0<!
#562489
0n
#565493
0f
#570000
1!
0g
#570812
1;!
#571911
x<!
#572489
xn
#575493
xf
#580000
0!
1g
#580812
0;!
#581911
0<!
#582489
0n
#585493
0f
#590000
1!
0g
#590812
1;!
#591911
x<!
#592489
xn
#595493
xf
#600000
0!
1g
#600812
0;!
#601911
0<!
#602489
0n
#605493
0f
#610000
1!
0g
#610812
1;!
#611911
x<!
#612489
xn
#615493
xf
#620000
0!
1g
#620812
0;!
#621911
0<!
#622489
0n
#625493
0f
#630000
1!
0g
#630812
1;!
#631911
x<!
#632489
xn
#635493
xf
#640000
0!
1g
#640812
0;!
#641911
0<!
#642489
0n
#645493
0f
#650000
1!
0g
#650812
1;!
#651911
x<!
#652489
xn
#655493
xf
#660000
0!
1g
#660812
0;!
#661911
0<!
#662489
0n
#665493
0f
#670000
1!
0g
#670812
1;!
#671911
x<!
#672489
xn
#675493
xf
#680000
0!
1g
#680812
0;!
#681911
0<!
#682489
0n
#685493
0f
#690000
1!
0g
#690812
1;!
#691911
x<!
#692489
xn
#695493
xf
#700000
0!
1g
#700812
0;!
#701911
0<!
#702489
0n
#705493
0f
#710000
1!
0g
#710812
1;!
#711911
x<!
#712489
xn
#715493
xf
#720000
0!
1g
#720812
0;!
#721911
0<!
#722489
0n
#725493
0f
#730000
1!
0g
#730812
1;!
#731911
x<!
#732489
xn
#735493
xf
#740000
0!
1g
#740812
0;!
#741911
0<!
#742489
0n
#745493
0f
#750000
1!
0g
#750812
1;!
#751911
x<!
#752489
xn
#755493
xf
#760000
0!
1g
#760812
0;!
#761911
0<!
#762489
0n
#765493
0f
#770000
1!
0g
#770812
1;!
#771911
x<!
#772489
xn
#775493
xf
#780000
0!
1g
#780812
0;!
#781911
0<!
#782489
0n
#785493
0f
#790000
1!
0g
#790812
1;!
#791911
x<!
#792489
xn
#795493
xf
#800000
0!
1g
#800812
0;!
#801911
0<!
#802489
0n
#805493
0f
#810000
1!
0g
#810812
1;!
#811911
x<!
#812489
xn
#815493
xf
#820000
0!
1g
#820812
0;!
#821911
0<!
#822489
0n
#825493
0f
#830000
1!
0g
#830812
1;!
#831911
x<!
#832489
xn
#835493
xf
#840000
0!
1g
#840812
0;!
#841911
0<!
#842489
0n
#845493
0f
#850000
1!
0g
#850812
1;!
#851911
x<!
#852489
xn
#855493
xf
#860000
0!
1g
#860812
0;!
#861911
0<!
#862489
0n
#865493
0f
#870000
1!
0g
#870812
1;!
#871911
x<!
#872489
xn
#875493
xf
#880000
0!
1g
#880812
0;!
#881911
0<!
#882489
0n
#885493
0f
#890000
1!
0g
#890812
1;!
#891911
x<!
#892489
xn
#895493
xf
#900000
0!
1g
#900812
0;!
#901911
0<!
#902489
0n
#905493
0f
#910000
1!
0g
#910812
1;!
#911911
x<!
#912489
xn
#915493
xf
#920000
0!
1g
#920812
0;!
#921911
0<!
#922489
0n
#925493
0f
#930000
1!
0g
#930812
1;!
#931911
x<!
#932489
xn
#935493
xf
#940000
0!
1g
#940812
0;!
#941911
0<!
#942489
0n
#945493
0f
#950000
1!
0g
#950812
1;!
#951911
x<!
#952489
xn
#955493
xf
#960000
0!
1g
#960812
0;!
#961911
0<!
#962489
0n
#965493
0f
#970000
1!
0g
#970812
1;!
#971911
x<!
#972489
xn
#975493
xf
#980000
0!
1g
#980812
0;!
#981911
0<!
#982489
0n
#985493
0f
#990000
1!
0g
#990812
1;!
#991911
x<!
#992489
xn
#995493
xf
