podstawy_techniki_cyfrowej/projekty/zad5sync/simulation/qsim/zad5dudi.msim.vcd
$comment
	File created using the following command:
		vcd file zad5dudi.msim.vcd -direction
$end
$date
	Thu Nov 16 21:45:59 2017
$end
$version
	ModelSim Version 10.1d
$end
$timescale
	1ps
$end
$scope module zad5dudi_vlg_vec_tst $end
$var reg 1 ! clock_27 $end
$var reg 1 " key [1:1] $end
$var wire 1 # hex0 [0] $end
$var wire 1 $ hex0 [1] $end
$var wire 1 % hex0 [2] $end
$var wire 1 & hex0 [3] $end
$var wire 1 ' hex0 [4] $end
$var wire 1 ( hex0 [5] $end
$var wire 1 ) hex0 [6] $end
$var wire 1 * hex1 [0] $end
$var wire 1 + hex1 [1] $end
$var wire 1 , hex1 [2] $end
$var wire 1 - hex1 [3] $end
$var wire 1 . hex1 [4] $end
$var wire 1 / hex1 [5] $end
$var wire 1 0 hex1 [6] $end
$var wire 1 1 hex2 [0] $end
$var wire 1 2 hex2 [1] $end
$var wire 1 3 hex2 [2] $end
$var wire 1 4 hex2 [3] $end
$var wire 1 5 hex2 [4] $end
$var wire 1 6 hex2 [5] $end
$var wire 1 7 hex2 [6] $end
$var wire 1 8 hex3 [0] $end
$var wire 1 9 hex3 [1] $end
$var wire 1 : hex3 [2] $end
$var wire 1 ; hex3 [3] $end
$var wire 1 < hex3 [4] $end
$var wire 1 = hex3 [5] $end
$var wire 1 > hex3 [6] $end
$var wire 1 ? hex4 [0] $end
$var wire 1 @ hex4 [1] $end
$var wire 1 A hex4 [2] $end
$var wire 1 B hex4 [3] $end
$var wire 1 C hex4 [4] $end
$var wire 1 D hex4 [5] $end
$var wire 1 E hex4 [6] $end
$var wire 1 F hex5 [0] $end
$var wire 1 G hex5 [1] $end
$var wire 1 H hex5 [2] $end
$var wire 1 I hex5 [3] $end
$var wire 1 J hex5 [4] $end
$var wire 1 K hex5 [5] $end
$var wire 1 L hex5 [6] $end
$var wire 1 M hex6 [0] $end
$var wire 1 N hex6 [1] $end
$var wire 1 O hex6 [2] $end
$var wire 1 P hex6 [3] $end
$var wire 1 Q hex6 [4] $end
$var wire 1 R hex6 [5] $end
$var wire 1 S hex6 [6] $end
$var wire 1 T hex7 [0] $end
$var wire 1 U hex7 [1] $end
$var wire 1 V hex7 [2] $end
$var wire 1 W hex7 [3] $end
$var wire 1 X hex7 [4] $end
$var wire 1 Y hex7 [5] $end
$var wire 1 Z hex7 [6] $end
$var wire 1 [ ledg [0] $end
$var wire 1 \ ledg [1] $end
$var wire 1 ] ledr [0] $end
$var wire 1 ^ ledr [1] $end
$var wire 1 _ ledr [2] $end
$var wire 1 ` ledr [3] $end
$var wire 1 a sampler $end
$scope module i1 $end
$var wire 1 b gnd $end
$var wire 1 c vcc $end
$var wire 1 d unknown $end
$var tri1 1 e devclrn $end
$var tri1 1 f devpor $end
$var tri1 1 g devoe $end
$var wire 1 h clock_27~clkctrl_outclk $end
$var wire 1 i clock_27~combout $end
$var wire 1 j i1|temp~0_combout $end
$var wire 1 k key[1]~clkctrl_outclk $end
$var wire 1 l i1|temp~regout $end
$var wire 1 m i3|temp~0_combout $end
$var wire 1 n i3|temp~regout $end
$var wire 1 o i4|temp~0_combout $end
$var wire 1 p i4|temp~regout $end
$var wire 1 q i2|temp~0_combout $end
$var wire 1 r i2|temp~regout $end
$var wire 1 s i5|wy[5]~0_combout $end
$var wire 1 t i5|wy[4]~1_combout $end
$var wire 1 u i5|wy[3]~2_combout $end
$var wire 1 v i5|wy[2]~3_combout $end
$var wire 1 w i5|wy[1]~4_combout $end
$var wire 1 x i5|wy[0]~5_combout $end
$var wire 1 y i5|wy [0] $end
$var wire 1 z i5|wy [1] $end
$var wire 1 { i5|wy [2] $end
$var wire 1 | i5|wy [3] $end
$var wire 1 } i5|wy [4] $end
$var wire 1 ~ i5|wy [5] $end
$var wire 1 !! i5|wy [6] $end
$var wire 1 "! key~combout [1] $end
$upscope $end
$upscope $end
$enddefinitions $end
#0
$dumpvars
0!
b1 "
x)
x(
x'
x&
x%
x$
x#
10
1/
1.
1-
1,
1+
1*
17
16
15
14
13
12
11
1>
1=
1<
1;
1:
19
18
1E
1D
1C
1B
1A
1@
1?
1L
1K
1J
1I
1H
1G
1F
1S
1R
1Q
1P
1O
1N
1M
1Z
1Y
1X
1W
1V
1U
1T
x\
x[
x`
x_
x^
x]
xa
0b
1c
xd
1e
1f
1g
xh
0i
xj
xk
xl
xm
xn
xo
xp
xq
xr
xs
xt
xu
xv
xw
xx
x!!
z~
z}
z|
z{
zz
zy
1"!
$end
#113
1k
#118
0h
#218
0l
0n
0p
0r
#541
1j
#680
0o
#1037
0s
#1041
0m
#1043
0x
0u
#1044
0v
0w
#1045
0q
#1047
0t
#1163
1!!
#3290
1\
#3305
0[
#3392
0^
#3404
0`
#3423
0_
#3669
0]
#4174
0#
#4315
0(
#4416
0$
#4461
1)
0&
#4532
0%
#4539
0'
#10000
1!
0a
#10999
1i
#11117
1h
#12934
1l
#13257
0j
#13752
1u
#13753
1s
#13755
1x
#13761
1q
#13762
1t
#14304
1[
#16385
1]
#16886
1#
#17031
1(
#17170
1&
#17254
1'
#20000
0!
1a
#20999
0i
#21117
0h
#24304
0[
#30000
1!
0a
#30999
1i
#31117
1h
#32934
0l
#33257
1j
#33752
0u
#33753
0s
#33755
0x
#33761
0q
#33762
0t
#34072
xr
#34304
1[
#34395
xq
#34581
x!!
#34591
xv
xs
#36385
0]
#36886
0#
#37170
0&
#37246
x^
#37254
0'
#37869
x(
#37879
x)
#38079
x%
#40000
0!
1a
#40999
0i
#41117
0h
#44304
0[
#50000
1!
0a
#50999
1i
#51117
1h
#52934
1l
#53257
0j
#53725
0v
#53752
xu
#53753
1s
#53755
xx
#53762
1t
#53864
xm
#54304
1[
#56385
1]
#56886
x#
#57031
1(
#57170
x&
#57213
0%
#57254
1'
#60000
0!
1a
#60999
0i
#61117
0h
#64304
0[
#70000
1!
0a
#70999
1i
#71117
1h
#72934
0l
xn
#73257
1j
#73396
xo
#73725
xv
#73753
xs
#73762
xw
#73763
xt
#73863
0o
#74304
1[
#76139
x_
#76385
0]
#77031
x(
#77134
x$
#77213
x%
#77255
x'
#80000
0!
1a
#80999
0i
#81117
0h
#84304
0[
#90000
1!
0a
#90999
1i
#91117
1h
#92934
1l
#93257
0j
#93725
0v
#93762
1t
#93863
xo
#94304
1[
#96385
1]
#97213
0%
#97254
1'
#100000
0!
1a
#100999
0i
#101117
0h
#104304
0[
#110000
1!
0a
#110999
1i
#111117
1h
#112934
0l
xp
#113257
1j
#113725
xv
#113762
xt
#114304
1[
#116120
x`
#116385
0]
#117213
x%
#117254
x'
#120000
0!
1a
#120999
0i
#121117
0h
#124304
0[
#130000
1!
0a
#130999
1i
#131117
1h
#132934
1l
#133257
0j
#134304
1[
#136385
1]
#140000
0!
1a
#140999
0i
#141117
0h
#144304
0[
#150000
1!
0a
#150999
1i
#151117
1h
#152934
0l
#153257
1j
#154304
1[
#156385
0]
#160000
0!
1a
#160999
0i
#161117
0h
#164304
0[
#170000
1!
0a
#170999
1i
#171117
1h
#172934
1l
#173257
0j
#174304
1[
#176385
1]
#180000
0!
1a
#180999
0i
#181117
0h
#184304
0[
#190000
1!
0a
#190999
1i
#191117
1h
#192934
0l
#193257
1j
#194304
1[
#196385
0]
#200000
0!
1a
#200999
0i
#201117
0h
#204304
0[
#210000
1!
0a
#210999
1i
#211117
1h
#212934
1l
#213257
0j
#214304
1[
#216385
1]
#220000
0!
1a
#220999
0i
#221117
0h
#224304
0[
#230000
1!
0a
#230999
1i
#231117
1h
#232934
0l
#233257
1j
#234304
1[
#236385
0]
#240000
0!
1a
#240999
0i
#241117
0h
#244304
0[
#250000
1!
0a
#250999
1i
#251117
1h
#252934
1l
#253257
0j
#254304
1[
#256385
1]
#260000
0!
1a
#260999
0i
#261117
0h
#264304
0[
#270000
1!
0a
#270999
1i
#271117
1h
#272934
0l
#273257
1j
#274304
1[
#276385
0]
#280000
0!
1a
#280999
0i
#281117
0h
#284304
0[
#290000
1!
0a
#290999
1i
#291117
1h
#292934
1l
#293257
0j
#294304
1[
#296385
1]
#300000
0!
1a
#300999
0i
#301117
0h
#304304
0[
#310000
1!
0a
#310999
1i
#311117
1h
#312934
0l
#313257
1j
#314304
1[
#316385
0]
#320000
0!
1a
#320999
0i
#321117
0h
#324304
0[
#330000
1!
0a
#330999
1i
#331117
1h
#332934
1l
#333257
0j
#334304
1[
#336385
1]
#340000
0!
1a
#340999
0i
#341117
0h
#344304
0[
#350000
1!
0a
#350999
1i
#351117
1h
#352934
0l
#353257
1j
#354304
1[
#356385
0]
#360000
0!
1a
#360999
0i
#361117
0h
#364304
0[
#370000
1!
0a
#370999
1i
#371117
1h
#372934
1l
#373257
0j
#374304
1[
#376385
1]
#380000
0!
1a
#380999
0i
#381117
0h
#384304
0[
#390000
1!
0a
#390999
1i
#391117
1h
#392934
0l
#393257
1j
#394304
1[
#396385
0]
#400000
0!
1a
#400999
0i
#401117
0h
#404304
0[
#410000
1!
0a
#410999
1i
#411117
1h
#412934
1l
#413257
0j
#414304
1[
#416385
1]
#420000
0!
1a
#420999
0i
#421117
0h
#424304
0[
#430000
1!
0a
#430999
1i
#431117
1h
#432934
0l
#433257
1j
#434304
1[
#436385
0]
#440000
0!
1a
#440999
0i
#441117
0h
#444304
0[
#450000
1!
0a
#450999
1i
#451117
1h
#452934
1l
#453257
0j
#454304
1[
#456385
1]
#460000
0!
1a
#460999
0i
#461117
0h
#464304
0[
#470000
1!
0a
#470999
1i
#471117
1h
#472934
0l
#473257
1j
#474304
1[
#476385
0]
#480000
0!
1a
#480999
0i
#481117
0h
#484304
0[
#490000
1!
0a
#490999
1i
#491117
1h
#492934
1l
#493257
0j
#494304
1[
#496385
1]
#500000
0!
1a
#500999
0i
#501117
0h
#504304
0[
#510000
1!
0a
#510999
1i
#511117
1h
#512934
0l
#513257
1j
#514304
1[
#516385
0]
#520000
0!
1a
#520999
0i
#521117
0h
#524304
0[
#530000
1!
0a
#530999
1i
#531117
1h
#532934
1l
#533257
0j
#534304
1[
#536385
1]
#540000
0!
1a
#540999
0i
#541117
0h
#544304
0[
#550000
1!
0a
#550999
1i
#551117
1h
#552934
0l
#553257
1j
#554304
1[
#556385
0]
#560000
0!
1a
#560999
0i
#561117
0h
#564304
0[
#570000
1!
0a
#570999
1i
#571117
1h
#572934
1l
#573257
0j
#574304
1[
#576385
1]
#580000
0!
1a
#580999
0i
#581117
0h
#584304
0[
#590000
1!
0a
#590999
1i
#591117
1h
#592934
0l
#593257
1j
#594304
1[
#596385
0]
#600000
0!
1a
#600999
0i
#601117
0h
#604304
0[
#610000
1!
0a
#610999
1i
#611117
1h
#612934
1l
#613257
0j
#614304
1[
#616385
1]
#620000
0!
1a
#620999
0i
#621117
0h
#624304
0[
#630000
1!
0a
#630999
1i
#631117
1h
#632934
0l
#633257
1j
#634304
1[
#636385
0]
#640000
0!
1a
#640999
0i
#641117
0h
#644304
0[
#650000
1!
0a
#650999
1i
#651117
1h
#652934
1l
#653257
0j
#654304
1[
#656385
1]
#660000
0!
1a
#660999
0i
#661117
0h
#664304
0[
#670000
1!
0a
#670999
1i
#671117
1h
#672934
0l
#673257
1j
#674304
1[
#676385
0]
#680000
0!
1a
#680999
0i
#681117
0h
#684304
0[
#690000
1!
0a
#690999
1i
#691117
1h
#692934
1l
#693257
0j
#694304
1[
#696385
1]
#700000
0!
1a
#700999
0i
#701117
0h
#704304
0[
#710000
1!
0a
#710999
1i
#711117
1h
#712934
0l
#713257
1j
#714304
1[
#716385
0]
#720000
0!
1a
#720999
0i
#721117
0h
#724304
0[
#730000
1!
0a
#730999
1i
#731117
1h
#732934
1l
#733257
0j
#734304
1[
#736385
1]
#740000
0!
1a
#740999
0i
#741117
0h
#744304
0[
#750000
1!
0a
#750999
1i
#751117
1h
#752934
0l
#753257
1j
#754304
1[
#756385
0]
#760000
0!
1a
#760999
0i
#761117
0h
#764304
0[
#770000
1!
0a
#770999
1i
#771117
1h
#772934
1l
#773257
0j
#774304
1[
#776385
1]
#780000
0!
1a
#780999
0i
#781117
0h
#784304
0[
#790000
1!
0a
#790999
1i
#791117
1h
#792934
0l
#793257
1j
#794304
1[
#796385
0]
#800000
0!
1a
#800999
0i
#801117
0h
#804304
0[
#810000
1!
0a
#810999
1i
#811117
1h
#812934
1l
#813257
0j
#814304
1[
#816385
1]
#820000
0!
1a
#820999
0i
#821117
0h
#824304
0[
#830000
1!
0a
#830999
1i
#831117
1h
#832934
0l
#833257
1j
#834304
1[
#836385
0]
#840000
0!
1a
#840999
0i
#841117
0h
#844304
0[
#850000
1!
0a
#850999
1i
#851117
1h
#852934
1l
#853257
0j
#854304
1[
#856385
1]
#860000
0!
1a
#860999
0i
#861117
0h
#864304
0[
#870000
1!
0a
#870999
1i
#871117
1h
#872934
0l
#873257
1j
#874304
1[
#876385
0]
#880000
0!
1a
#880999
0i
#881117
0h
#884304
0[
#890000
1!
0a
#890999
1i
#891117
1h
#892934
1l
#893257
0j
#894304
1[
#896385
1]
#900000
0!
1a
#900999
0i
#901117
0h
#904304
0[
#910000
1!
0a
#910999
1i
#911117
1h
#912934
0l
#913257
1j
#914304
1[
#916385
0]
#920000
0!
1a
#920999
0i
#921117
0h
#924304
0[
#930000
1!
0a
#930999
1i
#931117
1h
#932934
1l
#933257
0j
#934304
1[
#936385
1]
#940000
0!
1a
#940999
0i
#941117
0h
#944304
0[
#950000
1!
0a
#950999
1i
#951117
1h
#952934
0l
#953257
1j
#954304
1[
#956385
0]
#960000
0!
1a
#960999
0i
#961117
0h
#964304
0[
#970000
1!
0a
#970999
1i
#971117
1h
#972934
1l
#973257
0j
#974304
1[
#976385
1]
#980000
0!
1a
#980999
0i
#981117
0h
#984304
0[
#990000
1!
0a
#990999
1i
#991117
1h
#992934
0l
#993257
1j
#994304
1[
#996385
0]
